<?xml version="1.0" encoding="utf-8"?>
<!-- Generator: Adobe Illustrator 19.2.1, SVG Export Plug-In . SVG Version: 6.00 Build 0)  -->
<svg version="1.1" id="Layer_1" xmlns="http://www.w3.org/2000/svg" xmlns:xlink="http://www.w3.org/1999/xlink" x="0px" y="0px"
	 viewBox="0 0 102 102" enable-background="new 0 0 102 102" xml:space="preserve">
<g>
	<linearGradient id="SVGID_1_" gradientUnits="userSpaceOnUse" x1="23.9705" y1="94.2562" x2="78.0295" y2="7.7438">
		<stop  offset="0" style="stop-color:#FFB400"/>
		<stop  offset="1" style="stop-color:#FFAE00"/>
	</linearGradient>
	<circle fill="url(#SVGID_1_)" cx="51" cy="51" r="51"/>
	<g>
		<g>
			<path fill="#FFFFFF" d="M66.3,79.5c-0.6,0-1-0.5-1-1c0-0.6,0.5-1,1-1h2c0.6,0,1.1,0.5,1.1,1c0,0.6-0.4,1-1,1v-1l0,1H66.3z
				 M62.2,79.5h-2.1c-0.6,0-1-0.5-1-1c0-0.6,0.5-1,1-1h2.1c0.6,0,1,0.5,1,1C63.3,79,62.8,79.5,62.2,79.5L62.2,79.5z M56.1,79.5h-2
				c-0.6,0-1-0.5-1-1c0-0.6,0.5-1,1-1h2c0.6,0,1,0.5,1,1C57.1,79,56.6,79.5,56.1,79.5L56.1,79.5z M49.9,79.5h-2c-0.6,0-1-0.5-1-1
				c0-0.6,0.5-1,1-1h2c0.6,0,1,0.5,1,1C51,79,50.5,79.5,49.9,79.5L49.9,79.5z M43.8,79.5h-2c-0.6,0-1-0.5-1-1c0-0.6,0.5-1,1-1h2
				c0.6,0,1,0.5,1,1C44.8,79,44.4,79.5,43.8,79.5L43.8,79.5z M37.7,79.5h-2.1c-0.6,0-1-0.5-1-1c0-0.6,0.5-1,1-1h2.1c0.6,0,1,0.5,1,1
				C38.7,79,38.2,79.5,37.7,79.5L37.7,79.5z M71.9,77.7c-0.2,0-0.4-0.1-0.6-0.2c-0.4-0.3-0.5-1-0.2-1.4c0.3-0.4,0.6-0.9,0.7-1.4
				c0.1-0.6,0.7-0.9,1.2-0.8c0.6,0.1,0.9,0.7,0.8,1.2c-0.2,0.8-0.6,1.6-1.1,2.2C72.5,77.6,72.2,77.7,71.9,77.7L71.9,77.7z M71.9,72
				c-0.3,0-0.6-0.1-0.8-0.4c-0.3-0.4-0.8-0.8-1.2-1c-0.5-0.2-0.7-0.9-0.5-1.4c0.3-0.5,0.9-0.7,1.4-0.5c0.7,0.4,1.4,0.9,1.9,1.6
				c0.4,0.4,0.3,1.1-0.2,1.4C72.4,71.9,72.1,72,71.9,72L71.9,72z M66.3,70.2h-2c-0.6,0-1-0.5-1-1c0-0.6,0.5-1,1-1h2c0.6,0,1,0.5,1,1
				C67.3,69.8,66.9,70.2,66.3,70.2L66.3,70.2z M60.2,70.2h-2c-0.6,0-1-0.5-1-1c0-0.6,0.5-1,1-1h2c0.6,0,1,0.5,1,1
				C61.2,69.8,60.7,70.2,60.2,70.2L60.2,70.2z M54.1,69.8c-0.1,0-0.3,0-0.4-0.1c-0.8-0.3-1.4-0.9-2-1.5c-0.4-0.4-0.3-1.1,0.1-1.4
				c0.4-0.4,1.1-0.3,1.4,0.1c0.3,0.4,0.8,0.7,1.3,1c0.5,0.2,0.7,0.8,0.5,1.4C54.9,69.6,54.5,69.8,54.1,69.8L54.1,69.8z M51.5,64.8
				c-0.1,0-0.1,0-0.2,0c-0.6-0.1-0.9-0.6-0.8-1.2c0.2-0.8,0.5-1.6,1-2.3c0.3-0.5,1-0.6,1.4-0.2c0.5,0.3,0.5,1,0.2,1.4
				c-0.3,0.4-0.5,0.9-0.6,1.5C52.4,64.4,52,64.8,51.5,64.8L51.5,64.8z M55.8,61c-0.5,0-1-0.4-1-1c0-0.6,0.4-1,1-1.1
				c0.1,0,0.2,0,0.3,0h1.8c0.6,0,1,0.5,1,1c0,0.6-0.5,1-1,1L55.8,61C55.8,61,55.8,61,55.8,61L55.8,61z M74.4,61h-0.2
				c-0.6,0-1-0.5-1-1c0-0.6,0.5-1,1-1h0.2c0.5,0,0.9-0.1,1.4-0.3c0.5-0.2,1.1,0,1.3,0.5c0.2,0.5,0,1.1-0.6,1.3
				C75.9,60.9,75.2,61,74.4,61L74.4,61z M70.1,61h-2.1c-0.6,0-1-0.5-1-1c0-0.6,0.5-1,1-1h2.1c0.6,0,1,0.5,1,1
				C71.2,60.6,70.7,61,70.1,61L70.1,61z M64,61h-2c-0.6,0-1-0.5-1-1c0-0.6,0.5-1,1-1h2c0.6,0,1,0.5,1,1C65,60.6,64.5,61,64,61L64,61
				z M78.9,57.7c-0.1,0-0.2,0-0.3,0c-0.5-0.2-0.9-0.7-0.7-1.3c0.1-0.3,0.1-0.7,0.1-1c0-0.2,0-0.4,0-0.6c-0.1-0.6,0.3-1.1,0.8-1.2
				c0.6-0.1,1.1,0.3,1.2,0.8c0,0.3,0.1,0.6,0.1,0.9c0,0.5-0.1,1.1-0.2,1.6C79.7,57.4,79.3,57.7,78.9,57.7L78.9,57.7z M76.7,52.4
				c-0.2,0-0.4,0-0.5-0.1c-0.5-0.3-1-0.4-1.5-0.5c-0.6,0-1-0.5-0.9-1.1c0-0.6,0.5-1,1.1-0.9c0.8,0.1,1.6,0.3,2.4,0.7
				c0.5,0.3,0.7,0.9,0.4,1.4C77.4,52.2,77.1,52.4,76.7,52.4L76.7,52.4z M70.7,51.8h-2.1c-0.6,0-1-0.5-1-1c0-0.6,0.5-1,1-1h2.1
				c0.6,0,1,0.5,1,1C71.7,51.4,71.3,51.8,70.7,51.8L70.7,51.8z M64.6,51.8h-2c-0.6,0-1-0.5-1-1c0-0.6,0.5-1,1-1h2c0.6,0,1,0.5,1,1
				C65.6,51.4,65.1,51.8,64.6,51.8L64.6,51.8z M58.4,51.8h-2c-0.6,0-1-0.5-1-1c0-0.6,0.5-1,1-1h2c0.6,0,1,0.5,1,1
				C59.4,51.4,59,51.8,58.4,51.8L58.4,51.8z M52.3,51.8h-0.4c-0.7,0-1.4-0.1-2-0.4c-0.5-0.2-0.8-0.8-0.6-1.3
				c0.2-0.5,0.8-0.8,1.3-0.6c0.4,0.2,0.8,0.2,1.3,0.2h0.4c0.6,0,1,0.5,1,1C53.3,51.4,52.8,51.8,52.3,51.8L52.3,51.8z M47.5,48.6
				c-0.4,0-0.8-0.3-1-0.7c-0.2-0.6-0.3-1.2-0.3-1.8c0-0.2,0-0.5,0-0.7c0.1-0.6,0.6-1,1.1-0.9c0.6,0.1,1,0.6,0.9,1.1
				c0,0.1,0,0.3,0,0.5c0,0.4,0.1,0.8,0.2,1.1c0.2,0.5-0.1,1.1-0.7,1.3C47.7,48.6,47.6,48.6,47.5,48.6L47.5,48.6z M49.5,43.3
				c-0.3,0-0.7-0.2-0.9-0.5c-0.3-0.5-0.2-1.1,0.3-1.4c0.7-0.4,1.5-0.7,2.4-0.8c0.6-0.1,1.1,0.3,1.1,0.9c0.1,0.6-0.3,1.1-0.9,1.1
				c-0.5,0.1-1,0.2-1.5,0.5C49.9,43.2,49.7,43.3,49.5,43.3L49.5,43.3z M63.7,42.6h-2.1c-0.6,0-1-0.5-1-1c0-0.6,0.5-1,1-1h2.1
				c0.6,0,1,0.5,1,1C64.7,42.1,64.3,42.6,63.7,42.6L63.7,42.6z M57.5,42.6h-2.1c-0.6,0-1-0.5-1-1c0-0.6,0.5-1,1-1h2.1
				c0.6,0,1,0.5,1,1C58.6,42.1,58.1,42.6,57.5,42.6L57.5,42.6z M57.5,42.6"/>
		</g>
		<g>
			<path fill="#FFFFFF" d="M69.1,42.9l-6.5-7.3c-3.5-4-3.5-10.4,0-14.4c1.7-2,4-3,6.5-3c0,0,0,0,0,0c2.5,0,4.8,1.1,6.5,3l0,0
				c3.5,4,3.5,10.4,0,14.4L69.1,42.9z M69.1,19.9c-2,0-3.8,0.9-5.2,2.4c-2.9,3.3-2.9,8.7,0,12l5.2,5.9l5.2-5.9c2.9-3.3,2.9-8.7,0-12
				l0,0C72.9,20.8,71,19.9,69.1,19.9C69.1,19.9,69.1,19.9,69.1,19.9z M69.3,33.2c-3,0-5.5-2.5-5.5-5.5c0-3,2.5-5.5,5.5-5.5
				c3,0,5.5,2.5,5.5,5.5C74.8,30.8,72.4,33.2,69.3,33.2z M69.3,24c-2.1,0-3.7,1.7-3.7,3.7c0,2.1,1.7,3.7,3.7,3.7
				c2.1,0,3.7-1.7,3.7-3.7C73,25.7,71.4,24,69.3,24z"/>
		</g>
		<g>
			<path fill="#FFFFFF" d="M31.9,76.7L23.3,67c-4.7-5.3-4.7-13.9,0-19.2c2.3-2.6,5.4-4,8.6-4c0,0,0,0,0,0c3.3,0,6.3,1.4,8.6,4
				c4.7,5.3,4.7,13.9,0,19.2L31.9,76.7z M31.9,45.5C31.9,45.5,31.9,45.5,31.9,45.5c-2.8,0-5.3,1.2-7.3,3.4c-4.1,4.6-4.1,12.2,0,16.8
				l7.3,8.3l7.3-8.3c4.1-4.6,4.1-12.2,0-16.8l0,0C37.3,46.7,34.7,45.5,31.9,45.5z M31.9,61.9c-3.3,0-6-2.7-6-6c0-3.3,2.7-6,6-6
				s6,2.7,6,6C38,59.2,35.3,61.9,31.9,61.9z M31.9,51.7c-2.3,0-4.2,1.9-4.2,4.2c0,2.3,1.9,4.2,4.2,4.2s4.2-1.9,4.2-4.2
				C36.2,53.6,34.3,51.7,31.9,51.7z"/>
		</g>
	</g>
</g>
</svg>
