<?xml version="1.0" encoding="utf-8"?>
<!-- Generator: Adobe Illustrator 19.2.1, SVG Export Plug-In . SVG Version: 6.00 Build 0)  -->
<svg version="1.1" id="Layer_1" xmlns="http://www.w3.org/2000/svg" xmlns:xlink="http://www.w3.org/1999/xlink" x="0px" y="0px"
	 viewBox="0 0 102 102" enable-background="new 0 0 102 102" xml:space="preserve">
<g>
	<linearGradient id="SVGID_1_" gradientUnits="userSpaceOnUse" x1="23.9705" y1="94.2562" x2="78.0295" y2="7.7438">
		<stop  offset="0" style="stop-color:#FFB400"/>
		<stop  offset="1" style="stop-color:#FFAE00"/>
	</linearGradient>
	<circle fill="url(#SVGID_1_)" cx="51" cy="51" r="51"/>
	<g transform="translate(1 1)">
		<path fill="#FFFFFF" d="M45.1,73.4H31.6V55.9l0.4-0.3c0.4-0.3,7.9-6,12.2-2.8c1.4,1.1,3.2,1.6,5.1,1.6h3.5c2.6,0,5,1.3,6.5,3.3
			c0.8,1.2,1,2.2,0.5,3c2.2,0,4.7-0.2,5.7-0.8l7.7-4.8c3.9-2.1,5.6-2.1,7.2,0.1c0.8,1.1,0.6,2.7-0.4,3.6l0,0L66.5,69.5
			c-0.9,0.8-1.9,1.3-3,1.5c-0.4,0.1-0.8,0.2-1.3,0.2L50.6,73C48.8,73.2,46.9,73.4,45.1,73.4z M33.4,71.6h11.7c1.7,0,3.5-0.1,5.2-0.4
			l11.8-1.8c0.4,0,0.6,0,1-0.1h0.1c0.7-0.1,1.3-0.4,2-1l0.1-0.1l13.6-10.6c0.4-0.3,0.4-0.8,0.2-1.1c-0.7-1.1-1.1-1.5-4.8,0.4
			l-7.7,4.8c-2.1,1.1-6,1.2-10.2,1.1c-0.2,0-0.4,0-0.4,0c-0.5,0-0.9,0-1.2,0l0.1-1.8c0.3,0,0.6,0,1,0c1.2-0.1,2.2-0.3,2.5-0.7
			c0.1-0.2,0-0.7-0.4-1.3c-1.3-1.8-3.1-2.7-5.1-2.7h-3.5c-2.3,0-4.5-0.7-6.2-2c-2.5-2-7.5,0.9-9.7,2.4L33.4,71.6L33.4,71.6z
			 M79.5,58.2L79.5,58.2L79.5,58.2z"/>
		<path fill="#FFFFFF" d="M33.4,76h-6.3V52.7h6.3V76z M28.9,74.3h2.7V54.5h-2.7V74.3z"/>
		<path fill="#FFFFFF" d="M43.5,65.5c-0.5,0-0.9-0.4-0.9-0.9c0-2.2,1.7-3.6,4.5-3.6h8.7c0.5,0,0.9,0.4,0.9,0.9
			c0,0.5-0.4,0.9-0.9,0.9h-8.7c-2.7,0-2.7,1.3-2.7,1.8C44.4,65.1,44,65.5,43.5,65.5z"/>
		<path fill="#FFFFFF" d="M55.7,62.6c-0.4,0-0.9-0.4-0.9-0.9c0-0.4,0.4-0.9,0.9-0.9c1.5,0,2.4-0.4,2.6-0.7c0.1-0.2,0-0.7-0.4-1.3
			c-1-1.6-2.9-2.5-4.9-2.5h-3.5c-2.3,0-4.5-0.7-6.2-2c-0.8-0.6-1.9-0.7-3.2-0.5c-0.3,0.1-0.5,0-0.7-0.2c-0.2-0.2-0.4-0.4-0.4-0.7
			V40.1h-3.7c-0.4,0-0.7-0.3-0.8-0.5c-0.1-0.4,0-0.7,0.3-1L50.8,24c2.7-2.4,6.7-2.4,9.5,0l16.2,14.5c0.3,0.3,0.4,0.6,0.3,1
			s-0.4,0.5-0.8,0.5h-3.6v17.5c0,0.3-0.2,0.6-0.4,0.8l-5.2,3.2c-1.2,0.6-2.9,0.9-5.6,1.1L55.7,62.6z M59.9,60.8H61
			c2.3-0.1,3.9-0.4,4.8-0.8l4.6-2.8v-18c0-0.5,0.4-0.9,0.9-0.9h2.2L59,25.3c-2-1.8-5-1.8-7.1,0l-14.4,13h2.2c0.5,0,0.9,0.4,0.9,0.9
			v12.6c1.4-0.1,2.6,0.3,3.6,1c1.4,1.1,3.2,1.6,5.1,1.6h3.5c2.6,0,5,1.3,6.5,3.3C60.2,59,60.4,60,59.9,60.8z"/>
		<path fill="#FFFFFF" d="M50.5,41c-2,0-3.6-1.6-3.6-3.6c0-2,1.6-3.6,3.6-3.6c2,0,3.6,1.6,3.6,3.6S52.5,41,50.5,41z M50.5,35.7
			c-1,0-1.8,0.8-1.8,1.8c0,1,0.8,1.8,1.8,1.8c1,0,1.8-0.8,1.8-1.8C52.3,36.5,51.5,35.7,50.5,35.7z"/>
		<path fill="#FFFFFF" d="M61.3,51.8c-2,0-3.6-1.6-3.6-3.6s1.6-3.6,3.6-3.6s3.6,1.6,3.6,3.6S63.2,51.8,61.3,51.8z M61.3,46.4
			c-1,0-1.8,0.8-1.8,1.8s0.8,1.8,1.8,1.8s1.8-0.8,1.8-1.8S62.2,46.4,61.3,46.4z"/>
		<path fill="#FFFFFF" d="M47.8,51.8c-0.3,0-0.4-0.1-0.6-0.3c-0.4-0.4-0.4-0.9,0-1.3l16.2-16.2c0.4-0.4,0.9-0.4,1.3,0
			c0.4,0.4,0.4,0.9,0,1.3L48.4,51.5C48.2,51.7,48.1,51.8,47.8,51.8z"/>
	</g>
</g>
</svg>
