<?xml version="1.0" encoding="utf-8"?>
<!-- Generator: Adobe Illustrator 21.1.0, SVG Export Plug-In . SVG Version: 6.00 Build 0)  -->
<svg version="1.1" id="Layer_1" xmlns="http://www.w3.org/2000/svg" xmlns:xlink="http://www.w3.org/1999/xlink" x="0px" y="0px"
	 width="162px" height="36px" viewBox="0 0 162 36" enable-background="new 0 0 162 36" xml:space="preserve">
<g>
	<g>
		<path fill="#4DBA78" d="M15.6,2.8c-0.2-0.5-0.5-1-0.9-1.4c-0.4-0.4-0.9-0.7-1.4-0.9c-0.5-0.2-1.1-0.3-1.9-0.4C10.5,0,10.2,0,8,0
			C5.8,0,5.6,0,4.7,0.1c-0.9,0-1.4,0.2-1.9,0.4c-0.5,0.2-1,0.5-1.4,0.9C0.9,1.8,0.7,2.3,0.4,2.8C0.3,3.3,0.1,3.9,0.1,4.7
			C0,5.6,0,5.8,0,8c0,2.2,0,2.4,0.1,3.3c0,0.9,0.2,1.4,0.4,1.9c0.2,0.5,0.5,1,0.9,1.4c0.4,0.4,0.9,0.7,1.4,0.9
			c0.5,0.2,1.1,0.3,1.9,0.4C5.6,16,5.8,16,8,16c2.2,0,2.4,0,3.3-0.1c0.9,0,1.4-0.2,1.9-0.4c0.5-0.2,1-0.5,1.4-0.9
			c0.4-0.4,0.7-0.9,0.9-1.4c0.2-0.5,0.3-1.1,0.4-1.9C16,10.4,16,10.2,16,8c0-2.2,0-2.4-0.1-3.3C15.9,3.9,15.8,3.3,15.6,2.8z M8,12
			C5.7,12,3.9,10.2,3.9,8S5.7,3.9,8,3.9c2.3,0,4.1,1.8,4.1,4.1C12.1,10.2,10.3,12,8,12z M12.7,4C12.3,4,12,3.7,12,3.4
			c0-0.4,0.3-0.7,0.7-0.7c0.4,0,0.7,0.3,0.7,0.7C13.3,3.7,13.1,4,12.7,4z M8,5.4C6.5,5.4,5.4,6.5,5.4,8c0,1.5,1.2,2.6,2.6,2.6
			c1.5,0,2.7-1.2,2.6-2.6C10.6,6.5,9.5,5.4,8,5.4z M54.4,10.8c-0.6-0.7-1.3-1.3-1.9-1.9C52,8.4,51.9,8,52.5,7.4
			c0.5-0.7,1-1.4,1.5-2.1c0.5-0.6,1-1.3,1.2-2.1c0.1-0.5,0-0.7-0.5-0.8h-3.2c-0.4,0-0.6,0.2-0.7,0.5c-0.2,0.4-0.4,0.9-0.6,1.3
			c-0.5,1-1.1,2-1.8,2.8c-0.1,0.2-0.3,0.4-0.6,0.3s-0.4-0.7-0.4-0.9V2.8C47.3,2.2,47.2,2,46.6,2h-3c-0.4,0-0.6,0.1-0.8,0.4
			c-0.1,0.1-0.1,0.2,0.1,0.3c0.5,0.1,0.8,0.4,1,1c0.1,0.9,0.1,1.7,0,2.6c-0.1,0.2-0.1,0.5-0.2,0.7c-0.1,0.4-0.4,0.4-0.7,0.2
			c-0.3-0.2-0.5-0.5-0.7-0.8c-0.7-1.1-1.3-2.3-1.8-3.5c-0.2-0.4-0.4-0.6-0.8-0.6h-2.6c-0.6,0-0.7,0.3-0.5,0.7c1,2.2,2.1,4.4,3.4,6.4
			c0.8,1.1,1.6,2,2.6,2.6c1.3,0.8,2.6,1,3.9,0.9c0.7-0.1,0.9-0.2,0.9-0.9c0-0.4,0.1-0.9,0.3-1.3c0.2-0.4,0.5-0.5,0.9-0.2
			c0.2,0.2,0.3,0.3,0.5,0.5c0.4,0.4,0.7,0.8,1.1,1.2c0.5,0.5,1.1,0.8,1.8,0.7h2.7c0.4,0,0.7-0.6,0.4-1.1
			C54.9,11.4,54.6,11.1,54.4,10.8z M119.6,1h-1.9c-2.2,0-3.6,1.5-3.6,3.7v1.7h-2c-0.2,0-0.3,0.1-0.3,0.3v2.5c0,0.2,0.1,0.3,0.3,0.3
			h2v6.2c0,0.2,0.1,0.3,0.3,0.3h2.6c0.2,0,0.3-0.1,0.3-0.3V9.5h2.3c0.2,0,0.3-0.1,0.3-0.3V6.7c0-0.1,0-0.2-0.1-0.2
			c-0.1,0-0.1-0.1-0.2-0.1h-2.4V5c0-0.7,0.2-1,1.1-1h1.3c0.2,0,0.3-0.1,0.3-0.3V1.3C119.9,1.1,119.8,1,119.6,1z M91.5,7.7
			c1-0.1,2-0.5,2.4-1.4c-0.5,0.3-1.3,0.4-1.8,0.4c-0.3,0-0.5,0-0.8-0.1c-0.4-2.1-2.3-4.4-4.8-4.1c0.4-0.1,1.9-0.5,1.9-0.8
			c0-0.2-0.2-0.2-0.3-0.2c-0.5,0-1.3,0.4-1.8,0.5c0.4-0.1,1.1-0.4,1.2-0.9c-0.6,0.1-1.3,0.4-1.7,0.8C85.9,1.6,86,1.4,86,1.2
			c-1.8,1.1-2.7,3.4-3.4,5.3c-0.5-0.5-1.1-1-1.7-1.3c-1.8-1-3.7-1.8-5.6-2.5l0,0.2c0,1.1,0.9,2.1,1.9,2.6H77c-0.4,0-0.8,0.1-1.2,0.2
			c0.2,1.3,1.2,1.9,2.5,2.2c-0.6,0-1.1,0.1-1.5,0.6c0.5,1,1.6,1.4,2.7,1.3c-0.4,0.2-0.9,0.5-0.9,1c0,0.7,1,1,1.6,0.9
			c-1.1,1.1-2.6,1.8-4.2,1.8c-1.5,0-2.9-0.6-4-1.5c2.1,2.8,5.3,4.3,8.8,4.3c4.5,0,9.5-2.6,10.6-7.1c1,0,2-0.3,2.6-1
			C93.8,8,93.5,8,93.3,8C92.8,8,92.1,7.9,91.5,7.7z M161.2,1.4c-0.7-1-2.2-1.4-5-1.4h-10.3c-2.8,0-4.3,0.4-5.1,1.4
			C140,2.4,140,3.9,140,6v3.9c0,4.1,0.9,6.1,5.9,6.1h10.2c2.5,0,3.8-0.4,4.7-1.3c0.9-0.9,1.3-2.2,1.3-4.7V6
			C162,3.9,162.1,2.3,161.2,1.4z M153.6,8.5l-4.6,2.4c-0.1,0-0.2,0.1-0.4,0.1s-0.2,0-0.4-0.1c-0.2-0.1-0.4-0.4-0.4-0.6V5.7
			c0-0.2,0.1-0.5,0.4-0.6c0.2-0.1,0.5-0.1,0.7,0l4.6,2.4c0.2,0.1,0.4,0.4,0.4,0.6C154,8.2,153.8,8.4,153.6,8.5z"/>
	</g>
</g>
<g>
	<g>
		<path fill="#FFBA00" d="M15.6,22.8c-0.2-0.5-0.5-1-0.9-1.4c-0.4-0.4-0.9-0.7-1.4-0.9c-0.5-0.2-1.1-0.3-1.9-0.4
			C10.5,20,10.2,20,8,20c-2.2,0-2.4,0-3.3,0.1c-0.9,0-1.4,0.2-1.9,0.4c-0.5,0.2-1,0.5-1.4,0.9c-0.4,0.4-0.7,0.9-0.9,1.4
			c-0.2,0.5-0.3,1.1-0.4,1.9C0,25.6,0,25.8,0,28c0,2.2,0,2.4,0.1,3.3c0,0.9,0.2,1.4,0.4,1.9c0.2,0.5,0.5,1,0.9,1.4
			c0.4,0.4,0.9,0.7,1.4,0.9c0.5,0.2,1.1,0.3,1.9,0.4C5.6,36,5.8,36,8,36c2.2,0,2.4,0,3.3-0.1c0.9,0,1.4-0.2,1.9-0.4
			c0.5-0.2,1-0.5,1.4-0.9c0.4-0.4,0.7-0.9,0.9-1.4c0.2-0.5,0.3-1.1,0.4-1.9c0-0.9,0.1-1.1,0.1-3.3c0-2.2,0-2.4-0.1-3.3
			C15.9,23.9,15.8,23.3,15.6,22.8z M8,32c-2.3,0-4.1-1.8-4.1-4.1s1.8-4.1,4.1-4.1c2.3,0,4.1,1.8,4.1,4.1C12.1,30.2,10.3,32,8,32z
			 M12.7,24c-0.4,0-0.7-0.3-0.7-0.7c0-0.4,0.3-0.7,0.7-0.7c0.4,0,0.7,0.3,0.7,0.7C13.3,23.7,13.1,24,12.7,24z M8,25.4
			c-1.5,0-2.6,1.2-2.6,2.6c0,1.5,1.2,2.6,2.6,2.6c1.5,0,2.7-1.2,2.6-2.6C10.6,26.5,9.5,25.4,8,25.4z M119.6,21h-1.9
			c-2.2,0-3.6,1.5-3.6,3.7v1.7h-2c-0.2,0-0.3,0.1-0.3,0.3v2.5c0,0.2,0.1,0.3,0.3,0.3h2v6.2c0,0.2,0.1,0.3,0.3,0.3h2.6
			c0.2,0,0.3-0.1,0.3-0.3v-6.2h2.3c0.2,0,0.3-0.1,0.3-0.3v-2.5c0-0.1,0-0.2-0.1-0.2c-0.1,0-0.1-0.1-0.2-0.1h-2.4V25
			c0-0.7,0.2-1,1.1-1h1.3c0.2,0,0.3-0.1,0.3-0.3v-2.4C119.9,21.1,119.8,21,119.6,21z M54.4,30.8c-0.6-0.7-1.3-1.3-1.9-1.9
			c-0.6-0.5-0.7-0.9-0.1-1.5c0.5-0.7,1-1.4,1.5-2.1c0.5-0.6,1-1.3,1.2-2.1c0.1-0.5,0-0.7-0.5-0.8h-3.2c-0.4,0-0.6,0.2-0.7,0.5
			c-0.2,0.4-0.4,0.9-0.6,1.3c-0.5,1-1.1,2-1.8,2.8c-0.1,0.2-0.3,0.4-0.6,0.3s-0.4-0.7-0.4-0.9v-3.6c-0.1-0.6-0.2-0.8-0.8-0.8h-3
			c-0.4,0-0.6,0.1-0.8,0.4c-0.1,0.1-0.1,0.2,0.1,0.3c0.5,0.1,0.8,0.4,1,1c0.1,0.9,0.1,1.7,0,2.6c-0.1,0.2-0.1,0.5-0.2,0.7
			c-0.1,0.4-0.4,0.4-0.7,0.2c-0.3-0.2-0.5-0.5-0.7-0.8c-0.7-1.1-1.3-2.3-1.8-3.5c-0.2-0.4-0.4-0.6-0.8-0.6h-2.6
			c-0.6,0-0.7,0.3-0.5,0.7c1,2.2,2.1,4.4,3.4,6.4c0.8,1.1,1.6,2,2.6,2.6c1.3,0.8,2.6,1,3.9,0.9c0.7-0.1,0.9-0.2,0.9-0.9
			c0-0.4,0.1-0.9,0.3-1.3c0.2-0.4,0.5-0.5,0.9-0.2c0.2,0.2,0.3,0.3,0.5,0.5c0.4,0.4,0.7,0.8,1.1,1.2c0.5,0.5,1.1,0.8,1.8,0.7h2.7
			c0.4,0,0.7-0.6,0.4-1.1C54.9,31.4,54.6,31.1,54.4,30.8z M91.5,27.7c1-0.1,2-0.5,2.4-1.4c-0.5,0.3-1.3,0.4-1.8,0.4
			c-0.3,0-0.5,0-0.8-0.1c-0.4-2.1-2.3-4.4-4.8-4.1c0.4-0.1,1.9-0.5,1.9-0.8c0-0.2-0.2-0.2-0.3-0.2c-0.5,0-1.3,0.4-1.8,0.5
			c0.4-0.1,1.1-0.4,1.2-0.9c-0.6,0.1-1.3,0.4-1.7,0.8c0.2-0.2,0.3-0.4,0.3-0.7c-1.8,1.1-2.7,3.4-3.4,5.3c-0.5-0.5-1.1-1-1.7-1.3
			c-1.8-1-3.7-1.8-5.6-2.5l0,0.2c0,1.1,0.9,2.1,1.9,2.6H77c-0.4,0-0.8,0.1-1.2,0.2c0.2,1.3,1.2,1.9,2.5,2.2c-0.6,0-1.1,0.1-1.5,0.6
			c0.5,1,1.6,1.4,2.7,1.3c-0.4,0.2-0.9,0.5-0.9,1c0,0.7,1,1,1.6,0.9c-1.1,1.1-2.6,1.8-4.2,1.8c-1.5,0-2.9-0.6-4-1.5
			c2.1,2.8,5.3,4.3,8.8,4.3c4.5,0,9.5-2.6,10.6-7.1c1,0,2-0.3,2.6-1c-0.2,0-0.5,0.1-0.7,0.1C92.8,28,92.1,27.9,91.5,27.7z
			 M161.2,21.4c-0.7-1-2.2-1.4-5-1.4h-10.3c-2.8,0-4.3,0.4-5.1,1.4c-0.7,1-0.7,2.5-0.7,4.6v3.9c0,4.1,0.9,6.1,5.9,6.1h10.2
			c2.5,0,3.8-0.4,4.7-1.3c0.9-0.9,1.3-2.2,1.3-4.7v-4C162,23.9,162.1,22.3,161.2,21.4z M153.6,28.5l-4.6,2.4c-0.1,0-0.2,0.1-0.4,0.1
			s-0.2,0-0.4-0.1c-0.2-0.1-0.4-0.4-0.4-0.6v-4.6c0-0.2,0.1-0.5,0.4-0.6c0.2-0.1,0.5-0.1,0.7,0l4.6,2.4c0.2,0.1,0.4,0.4,0.4,0.6
			C154,28.2,153.8,28.4,153.6,28.5z"/>
	</g>
</g>
</svg>
