<svg height="66" width="50" xmlns:xlink="http://www.w3.org/1999/xlink" xmlns="http://www.w3.org/2000/svg" viewBox="0 0 50 66">
    <path stroke-width="3" stroke="#f8773e" fill="#ffffff" fill-rule="evenodd" d="M 47.02 34.1 C 47.02 34.1 47.02 34.1 47.02 34.1 C 47.02 34.1 47.02 34.11 47.02 34.11 C 47.02 34.11 46.99 34.13 46.99 34.13 C 46.99 34.13 25.01 62.05 25.01 62.05 C 25.01 62.05 3.04 34.13 3.04 34.13 C 3.04 34.13 3.01 34.11 3.01 34.11 C 3.01 34.11 3.01 34.1 3.01 34.1 C 3.01 34.1 3.01 34.1 3.01 34.1 C 3.01 34.1 3.01 34.1 3.01 34.1 C 3.01 34.1 3.01 15.88 3.01 15.88 C 3.01 15.88 15.9 2.99 15.9 2.99 C 15.9 2.99 34.13 2.99 34.13 2.99 C 34.13 2.99 47.02 15.88 47.02 15.88 C 47.02 15.88 47.02 34.1 47.02 34.1 C 47.02 34.1 47.02 34.1 47.02 34.1 Z"></path>
    <path transform="scale(0.013) translate(1050, 950)" d="M1216 0q185 0 316.5 93.5t131.5 226.5v896q0 130-125.5 222t-305.5 97l213 202q16 15 8 35t-30 20h-1056q-22 0-30-20t8-35l213-202q-180-5-305.5-97t-125.5-222v-896q0-133 131.5-226.5t316.5-93.5h640zm-320 1344q80 0 136-56t56-136-56-136-136-56-136 56-56 136 56 136 136 56zm576-576v-512h-1152v512h1152z"></path>
</svg>