<svg height="66" width="50" xmlns:xlink="http://www.w3.org/1999/xlink" xmlns="http://www.w3.org/2000/svg" viewBox="0 0 50 66">
        <path stroke-width="3" stroke="#f8773e" fill="#ffffff" fill-rule="evenodd" d="M 47.02 34.1 C 47.02 34.1 47.02 34.1 47.02 34.1 C 47.02 34.1 47.02 34.11 47.02 34.11 C 47.02 34.11 46.99 34.13 46.99 34.13 C 46.99 34.13 25.01 62.05 25.01 62.05 C 25.01 62.05 3.04 34.13 3.04 34.13 C 3.04 34.13 3.01 34.11 3.01 34.11 C 3.01 34.11 3.01 34.1 3.01 34.1 C 3.01 34.1 3.01 34.1 3.01 34.1 C 3.01 34.1 3.01 34.1 3.01 34.1 C 3.01 34.1 3.01 15.88 3.01 15.88 C 3.01 15.88 15.9 2.99 15.9 2.99 C 15.9 2.99 34.13 2.99 34.13 2.99 C 34.13 2.99 47.02 15.88 47.02 15.88 C 47.02 15.88 47.02 34.1 47.02 34.1 C 47.02 34.1 47.02 34.1 47.02 34.1 Z"></path>
        <path fill="#343434" fill-rule="evenodd" d="M 25 34.16 C 25 34.16 29.22 26.83 29.22 26.83 C 29.22 26.83 30.97 31.79 30.97 31.79 C 30.97 31.79 29.55 31.79 29.55 31.79 C 29.55 31.79 29.55 33.98 29.55 33.98 C 29.55 33.98 37.98 33.98 37.98 33.98 C 37.98 33.98 37.98 31.79 37.98 31.79 C 37.98 31.79 36.37 31.79 36.37 31.79 C 36.37 31.79 30.32 15.87 30.32 15.87 C 30.32 15.87 25 25.68 25 25.68 C 25 25.68 19.68 15.87 19.68 15.87 C 19.68 15.87 13.62 31.79 13.62 31.79 C 13.62 31.79 12.01 31.79 12.01 31.79 C 12.01 31.79 12.01 33.98 12.01 33.98 C 12.01 33.98 20.44 33.98 20.44 33.98 C 20.44 33.98 20.44 31.79 20.44 31.79 C 20.44 31.79 19.03 31.79 19.03 31.79 C 19.03 31.79 20.78 26.83 20.78 26.83 C 20.78 26.83 25 34.16 25 34.16 Z"></path>
        </svg>